{
  "feature": "randomite:randomite_ore",
  "placement": [
    {
      "type": "minecraft:count",
      "count": 2
    },
    {
      "type": "minecraft:in_square"
    },
    {
      "type": "minecraft:height_range",
      "height": {
        "type": "minecraft:trapezoid",
        "max_inclusive": {
          "absolute": 32
        },
        "min_inclusive": {
          "absolute": -32
        }
      }
    },
    {
      "type": "minecraft:biome"
    }
  ]
}